BH_IDENTITY OPS=2{
  OP0 [ Addr: 0x1c3eb20 Dims: 2 Start: 0 Shape:  12,12 Stride:  12,1 Type: BH_FLOAT64 Data: (nil), Base: 0x1bc40e0 -->
      [ Addr: 0x1bc40e0 Dims: 2 Start: 0 Shape:  12,12 Stride:  12,1 Type: BH_FLOAT64 Data: (nil), Base: (nil)  ]
  ]
  OP1 [ CONST=0 ]
}
BH_DISCARD OPS=1{
  OP0 [ Addr: 0x1c3eb20 Dims: 2 Start: 0 Shape:  12,12 Stride:  12,1 Type: BH_FLOAT64 Data: (nil), Base: 0x1bc40e0 -->
      [ Addr: 0x1bc40e0 Dims: 2 Start: 0 Shape:  12,12 Stride:  12,1 Type: BH_FLOAT64 Data: 0x7f2d52080000, Base: (nil)  ]
  ]
}
BH_IDENTITY OPS=2{
  OP0 [ Addr: 0x1c3ec50 Dims: 1 Start: 0 Shape:  12 Stride:  12 Type: BH_FLOAT64 Data: (nil), Base: 0x1bc40e0 -->
      [ Addr: 0x1bc40e0 Dims: 2 Start: 0 Shape:  12,12 Stride:  12,1 Type: BH_FLOAT64 Data: 0x7f2d52080000, Base: (nil)  ]
  ]
  OP1 [ CONST=-273.150000 ]
}
BH_DISCARD OPS=1{
  OP0 [ Addr: 0x1c3ec50 Dims: 1 Start: 0 Shape:  12 Stride:  12 Type: BH_FLOAT64 Data: (nil), Base: 0x1bc40e0 -->
      [ Addr: 0x1bc40e0 Dims: 2 Start: 0 Shape:  12,12 Stride:  12,1 Type: BH_FLOAT64 Data: 0x7f2d52080000, Base: (nil)  ]
  ]
}
BH_IDENTITY OPS=2{
  OP0 [ Addr: 0x1c3ed80 Dims: 1 Start: 11 Shape:  12 Stride:  12 Type: BH_FLOAT64 Data: (nil), Base: 0x1bc40e0 -->
      [ Addr: 0x1bc40e0 Dims: 2 Start: 0 Shape:  12,12 Stride:  12,1 Type: BH_FLOAT64 Data: 0x7f2d52080000, Base: (nil)  ]
  ]
  OP1 [ CONST=-273.150000 ]
}
BH_DISCARD OPS=1{
  OP0 [ Addr: 0x1c3ed80 Dims: 1 Start: 11 Shape:  12 Stride:  12 Type: BH_FLOAT64 Data: (nil), Base: 0x1bc40e0 -->
      [ Addr: 0x1bc40e0 Dims: 2 Start: 0 Shape:  12,12 Stride:  12,1 Type: BH_FLOAT64 Data: 0x7f2d52080000, Base: (nil)  ]
  ]
}
BH_IDENTITY OPS=2{
  OP0 [ Addr: 0x1c40240 Dims: 1 Start: 132 Shape:  12 Stride:  1 Type: BH_FLOAT64 Data: (nil), Base: 0x1bc40e0 -->
      [ Addr: 0x1bc40e0 Dims: 2 Start: 0 Shape:  12,12 Stride:  12,1 Type: BH_FLOAT64 Data: 0x7f2d52080000, Base: (nil)  ]
  ]
  OP1 [ CONST=-273.150000 ]
}
BH_DISCARD OPS=1{
  OP0 [ Addr: 0x1c40240 Dims: 1 Start: 132 Shape:  12 Stride:  1 Type: BH_FLOAT64 Data: (nil), Base: 0x1bc40e0 -->
      [ Addr: 0x1bc40e0 Dims: 2 Start: 0 Shape:  12,12 Stride:  12,1 Type: BH_FLOAT64 Data: 0x7f2d52080000, Base: (nil)  ]
  ]
}
BH_IDENTITY OPS=2{
  OP0 [ Addr: 0x1c40370 Dims: 1 Start: 0 Shape:  12 Stride:  1 Type: BH_FLOAT64 Data: (nil), Base: 0x1bc40e0 -->
      [ Addr: 0x1bc40e0 Dims: 2 Start: 0 Shape:  12,12 Stride:  12,1 Type: BH_FLOAT64 Data: 0x7f2d52080000, Base: (nil)  ]
  ]
  OP1 [ CONST=40.000000 ]
}
BH_DISCARD OPS=1{
  OP0 [ Addr: 0x1c40370 Dims: 1 Start: 0 Shape:  12 Stride:  1 Type: BH_FLOAT64 Data: (nil), Base: 0x1bc40e0 -->
      [ Addr: 0x1bc40e0 Dims: 2 Start: 0 Shape:  12,12 Stride:  12,1 Type: BH_FLOAT64 Data: 0x7f2d52080000, Base: (nil)  ]
  ]
}
BH_ADD OPS=3{
  OP0 [ Addr: 0x1c3ed80 Dims: 2 Start: 0 Shape:  10,10 Stride:  10,1 Type: BH_FLOAT64 Data: (nil), Base: (nil)  ]
  OP1 [ Addr: 0x1c40670 Dims: 2 Start: 13 Shape:  10,10 Stride:  12,1 Type: BH_FLOAT64 Data: (nil), Base: 0x1bc40e0 -->
      [ Addr: 0x1bc40e0 Dims: 2 Start: 0 Shape:  12,12 Stride:  12,1 Type: BH_FLOAT64 Data: 0x7f2d52080000, Base: (nil)  ]
  ]
  OP2 [ Addr: 0x1c46800 Dims: 2 Start: 1 Shape:  10,10 Stride:  12,1 Type: BH_FLOAT64 Data: (nil), Base: 0x1bc40e0 -->
      [ Addr: 0x1bc40e0 Dims: 2 Start: 0 Shape:  12,12 Stride:  12,1 Type: BH_FLOAT64 Data: 0x7f2d52080000, Base: (nil)  ]
  ]
}
BH_ADD OPS=3{
  OP0 [ Addr: 0x1c46930 Dims: 2 Start: 0 Shape:  10,10 Stride:  10,1 Type: BH_FLOAT64 Data: (nil), Base: (nil)  ]
  OP1 [ Addr: 0x1c3ed80 Dims: 2 Start: 0 Shape:  10,10 Stride:  10,1 Type: BH_FLOAT64 Data: 0x7f2d5207c000, Base: (nil)  ]
  OP2 [ Addr: 0x1c46a60 Dims: 2 Start: 14 Shape:  10,10 Stride:  12,1 Type: BH_FLOAT64 Data: (nil), Base: 0x1bc40e0 -->
      [ Addr: 0x1bc40e0 Dims: 2 Start: 0 Shape:  12,12 Stride:  12,1 Type: BH_FLOAT64 Data: 0x7f2d52080000, Base: (nil)  ]
  ]
}
BH_FREE OPS=1{
  OP0 [ Addr: 0x1c3ed80 Dims: 2 Start: 0 Shape:  10,10 Stride:  10,1 Type: BH_FLOAT64 Data: 0x7f2d5207c000, Base: (nil)  ]
}
BH_DISCARD OPS=1{
  OP0 [ Addr: 0x1c3ed80 Dims: 2 Start: 0 Shape:  10,10 Stride:  10,1 Type: BH_FLOAT64 Data: (nil), Base: (nil)  ]
}
BH_ADD OPS=3{
  OP0 [ Addr: 0x1c46b90 Dims: 2 Start: 0 Shape:  10,10 Stride:  10,1 Type: BH_FLOAT64 Data: (nil), Base: (nil)  ]
  OP1 [ Addr: 0x1c46930 Dims: 2 Start: 0 Shape:  10,10 Stride:  10,1 Type: BH_FLOAT64 Data: 0x7f2d5207b000, Base: (nil)  ]
  OP2 [ Addr: 0x1c46cc0 Dims: 2 Start: 12 Shape:  10,10 Stride:  12,1 Type: BH_FLOAT64 Data: (nil), Base: 0x1bc40e0 -->
      [ Addr: 0x1bc40e0 Dims: 2 Start: 0 Shape:  12,12 Stride:  12,1 Type: BH_FLOAT64 Data: 0x7f2d52080000, Base: (nil)  ]
  ]
}
BH_FREE OPS=1{
  OP0 [ Addr: 0x1c46930 Dims: 2 Start: 0 Shape:  10,10 Stride:  10,1 Type: BH_FLOAT64 Data: 0x7f2d5207b000, Base: (nil)  ]
}
BH_DISCARD OPS=1{
  OP0 [ Addr: 0x1c46930 Dims: 2 Start: 0 Shape:  10,10 Stride:  10,1 Type: BH_FLOAT64 Data: (nil), Base: (nil)  ]
}
BH_ADD OPS=3{
  OP0 [ Addr: 0x1c50ba0 Dims: 2 Start: 0 Shape:  10,10 Stride:  10,1 Type: BH_FLOAT64 Data: (nil), Base: (nil)  ]
  OP1 [ Addr: 0x1c46b90 Dims: 2 Start: 0 Shape:  10,10 Stride:  10,1 Type: BH_FLOAT64 Data: 0x7f2d5207c000, Base: (nil)  ]
  OP2 [ Addr: 0x1c50cd0 Dims: 2 Start: 25 Shape:  10,10 Stride:  12,1 Type: BH_FLOAT64 Data: (nil), Base: 0x1bc40e0 -->
      [ Addr: 0x1bc40e0 Dims: 2 Start: 0 Shape:  12,12 Stride:  12,1 Type: BH_FLOAT64 Data: 0x7f2d52080000, Base: (nil)  ]
  ]
}
BH_FREE OPS=1{
  OP0 [ Addr: 0x1c46b90 Dims: 2 Start: 0 Shape:  10,10 Stride:  10,1 Type: BH_FLOAT64 Data: 0x7f2d5207c000, Base: (nil)  ]
}
BH_DISCARD OPS=1{
  OP0 [ Addr: 0x1c46b90 Dims: 2 Start: 0 Shape:  10,10 Stride:  10,1 Type: BH_FLOAT64 Data: (nil), Base: (nil)  ]
}
BH_MULTIPLY OPS=3{
  OP0 [ Addr: 0x1c50e00 Dims: 2 Start: 0 Shape:  10,10 Stride:  10,1 Type: BH_FLOAT64 Data: (nil), Base: (nil)  ]
  OP1 [ CONST=0.200000 ]
  OP2 [ Addr: 0x1c50ba0 Dims: 2 Start: 0 Shape:  10,10 Stride:  10,1 Type: BH_FLOAT64 Data: 0x7f2d5207b000, Base: (nil)  ]
}
BH_FREE OPS=1{
  OP0 [ Addr: 0x1c50ba0 Dims: 2 Start: 0 Shape:  10,10 Stride:  10,1 Type: BH_FLOAT64 Data: 0x7f2d5207b000, Base: (nil)  ]
}
BH_DISCARD OPS=1{
  OP0 [ Addr: 0x1c50ba0 Dims: 2 Start: 0 Shape:  10,10 Stride:  10,1 Type: BH_FLOAT64 Data: (nil), Base: (nil)  ]
}
BH_SUBTRACT OPS=3{
  OP0 [ Addr: 0x1c50f30 Dims: 2 Start: 0 Shape:  10,10 Stride:  10,1 Type: BH_FLOAT64 Data: (nil), Base: (nil)  ]
  OP1 [ Addr: 0x1c50e00 Dims: 2 Start: 0 Shape:  10,10 Stride:  10,1 Type: BH_FLOAT64 Data: 0x7f2d5207c000, Base: (nil)  ]
  OP2 [ Addr: 0x1c40670 Dims: 2 Start: 13 Shape:  10,10 Stride:  12,1 Type: BH_FLOAT64 Data: (nil), Base: 0x1bc40e0 -->
      [ Addr: 0x1bc40e0 Dims: 2 Start: 0 Shape:  12,12 Stride:  12,1 Type: BH_FLOAT64 Data: 0x7f2d52080000, Base: (nil)  ]
  ]
}
BH_ABSOLUTE OPS=2{
  OP0 [ Addr: 0x1c51060 Dims: 2 Start: 0 Shape:  10,10 Stride:  10,1 Type: BH_FLOAT64 Data: (nil), Base: (nil)  ]
  OP1 [ Addr: 0x1c50f30 Dims: 2 Start: 0 Shape:  10,10 Stride:  10,1 Type: BH_FLOAT64 Data: 0x7f2d5207b000, Base: (nil)  ]
}
BH_FREE OPS=1{
  OP0 [ Addr: 0x1c50f30 Dims: 2 Start: 0 Shape:  10,10 Stride:  10,1 Type: BH_FLOAT64 Data: 0x7f2d5207b000, Base: (nil)  ]
}
BH_DISCARD OPS=1{
  OP0 [ Addr: 0x1c50f30 Dims: 2 Start: 0 Shape:  10,10 Stride:  10,1 Type: BH_FLOAT64 Data: (nil), Base: (nil)  ]
}
BH_USERFUNC OPS=0{
  OUT0 [ Addr: 0x1c51190 Dims: 1 Start: 0 Shape:  10 Stride:  1 Type: BH_FLOAT64 Data: (nil), Base: (nil)  ]
  IN1 [ Addr: 0x1c51060 Dims: 2 Start: 0 Shape:  10,10 Stride:  10,1 Type: BH_FLOAT64 Data: 0x7f2d5207a000, Base: (nil)  ]
}
BH_FREE OPS=1{
  OP0 [ Addr: 0x1c51060 Dims: 2 Start: 0 Shape:  10,10 Stride:  10,1 Type: BH_FLOAT64 Data: 0x7f2d5207a000, Base: (nil)  ]
}
BH_DISCARD OPS=1{
  OP0 [ Addr: 0x1c51060 Dims: 2 Start: 0 Shape:  10,10 Stride:  10,1 Type: BH_FLOAT64 Data: (nil), Base: (nil)  ]
}
BH_USERFUNC OPS=0{
  OUT0 [ Addr: 0x1c512c0 Dims: 1 Start: 0 Shape:  1 Stride:  1 Type: BH_FLOAT64 Data: (nil), Base: (nil)  ]
  IN1 [ Addr: 0x1c51190 Dims: 1 Start: 0 Shape:  10 Stride:  1 Type: BH_FLOAT64 Data: 0x7f2d52079000, Base: (nil)  ]
}
BH_SYNC OPS=1{
  OP0 [ Addr: 0x1c512c0 Dims: 1 Start: 0 Shape:  1 Stride:  1 Type: BH_FLOAT64 Data: 0x7f2d52078000, Base: (nil)  ]
}
BH_FREE OPS=1{
  OP0 [ Addr: 0x1c512c0 Dims: 1 Start: 0 Shape:  1 Stride:  1 Type: BH_FLOAT64 Data: (nil), Base: (nil)  ]
}
BH_DISCARD OPS=1{
  OP0 [ Addr: 0x1c512c0 Dims: 1 Start: 0 Shape:  1 Stride:  1 Type: BH_FLOAT64 Data: (nil), Base: (nil)  ]
}
BH_FREE OPS=1{
  OP0 [ Addr: 0x1c51190 Dims: 1 Start: 0 Shape:  10 Stride:  1 Type: BH_FLOAT64 Data: 0x7f2d52079000, Base: (nil)  ]
}
BH_DISCARD OPS=1{
  OP0 [ Addr: 0x1c51190 Dims: 1 Start: 0 Shape:  10 Stride:  1 Type: BH_FLOAT64 Data: (nil), Base: (nil)  ]
}
BH_IDENTITY OPS=2{
  OP0 [ Addr: 0x1c46b90 Dims: 2 Start: 13 Shape:  10,10 Stride:  12,1 Type: BH_FLOAT64 Data: (nil), Base: 0x1bc40e0 -->
      [ Addr: 0x1bc40e0 Dims: 2 Start: 0 Shape:  12,12 Stride:  12,1 Type: BH_FLOAT64 Data: 0x7f2d52080000, Base: (nil)  ]
  ]
  OP1 [ Addr: 0x1c50e00 Dims: 2 Start: 0 Shape:  10,10 Stride:  10,1 Type: BH_FLOAT64 Data: 0x7f2d5207c000, Base: (nil)  ]
}
BH_DISCARD OPS=1{
  OP0 [ Addr: 0x1c46b90 Dims: 2 Start: 13 Shape:  10,10 Stride:  12,1 Type: BH_FLOAT64 Data: (nil), Base: 0x1bc40e0 -->
      [ Addr: 0x1bc40e0 Dims: 2 Start: 0 Shape:  12,12 Stride:  12,1 Type: BH_FLOAT64 Data: 0x7f2d52080000, Base: (nil)  ]
  ]
}
BH_DISCARD OPS=1{
  OP0 [ Addr: 0x1c40670 Dims: 2 Start: 13 Shape:  10,10 Stride:  12,1 Type: BH_FLOAT64 Data: (nil), Base: 0x1bc40e0 -->
      [ Addr: 0x1bc40e0 Dims: 2 Start: 0 Shape:  12,12 Stride:  12,1 Type: BH_FLOAT64 Data: 0x7f2d52080000, Base: (nil)  ]
  ]
}
BH_DISCARD OPS=1{
  OP0 [ Addr: 0x1c46800 Dims: 2 Start: 1 Shape:  10,10 Stride:  12,1 Type: BH_FLOAT64 Data: (nil), Base: 0x1bc40e0 -->
      [ Addr: 0x1bc40e0 Dims: 2 Start: 0 Shape:  12,12 Stride:  12,1 Type: BH_FLOAT64 Data: 0x7f2d52080000, Base: (nil)  ]
  ]
}
BH_DISCARD OPS=1{
  OP0 [ Addr: 0x1c46a60 Dims: 2 Start: 14 Shape:  10,10 Stride:  12,1 Type: BH_FLOAT64 Data: (nil), Base: 0x1bc40e0 -->
      [ Addr: 0x1bc40e0 Dims: 2 Start: 0 Shape:  12,12 Stride:  12,1 Type: BH_FLOAT64 Data: 0x7f2d52080000, Base: (nil)  ]
  ]
}
BH_DISCARD OPS=1{
  OP0 [ Addr: 0x1c46cc0 Dims: 2 Start: 12 Shape:  10,10 Stride:  12,1 Type: BH_FLOAT64 Data: (nil), Base: 0x1bc40e0 -->
      [ Addr: 0x1bc40e0 Dims: 2 Start: 0 Shape:  12,12 Stride:  12,1 Type: BH_FLOAT64 Data: 0x7f2d52080000, Base: (nil)  ]
  ]
}
BH_DISCARD OPS=1{
  OP0 [ Addr: 0x1c50cd0 Dims: 2 Start: 25 Shape:  10,10 Stride:  12,1 Type: BH_FLOAT64 Data: (nil), Base: 0x1bc40e0 -->
      [ Addr: 0x1bc40e0 Dims: 2 Start: 0 Shape:  12,12 Stride:  12,1 Type: BH_FLOAT64 Data: 0x7f2d52080000, Base: (nil)  ]
  ]
}
BH_FREE OPS=1{
  OP0 [ Addr: 0x1c50e00 Dims: 2 Start: 0 Shape:  10,10 Stride:  10,1 Type: BH_FLOAT64 Data: 0x7f2d5207c000, Base: (nil)  ]
}
BH_DISCARD OPS=1{
  OP0 [ Addr: 0x1c50e00 Dims: 2 Start: 0 Shape:  10,10 Stride:  10,1 Type: BH_FLOAT64 Data: (nil), Base: (nil)  ]
}
BH_FREE OPS=1{
  OP0 [ Addr: 0x1bc40e0 Dims: 2 Start: 0 Shape:  12,12 Stride:  12,1 Type: BH_FLOAT64 Data: 0x7f2d52080000, Base: (nil)  ]
}
BH_DISCARD OPS=1{
  OP0 [ Addr: 0x1bc40e0 Dims: 2 Start: 0 Shape:  12,12 Stride:  12,1 Type: BH_FLOAT64 Data: (nil), Base: (nil)  ]
}
